{
  "type": "service_account",
  "project_id": "cron20200418",
  "private_key_id": "80df66d01e69c2d438d26dfa188fe67852f889ce",
  "private_key": "-----BEGIN PRIVATE KEY-----\nMIIEvgIBADANBgkqhkiG9w0BAQEFAASCBKgwggSkAgEAAoIBAQC6/y66Y0ehufTX\nc2/qTWr4uGY7n/xXAoOgAkplq4+GinV+XjaVMFDUq6H6t8smY70TxaW/rgXYNRpl\nDBhTGLry7U7HdzIU9S8BwoeiAqI3iZ1E+4ssZqJOiujt8rj/3/Dr9hEo5pOUAjW1\nmWovXgfVGgXFm4O5dVHWmmmbwwLTALwOG4M3CHngO0uiKuezVaPKqzV2TjKqqyJt\njuyFRCbRkNQM+CH8z6lwIjJNQnEnWsAlSYzpeGS4avyJs1h+2N6/2fREiqk/EXlW\nlz1/HWxd5zitJT2r2PAisgcuTsLCQDnnVOfdYYEwsH2mhZI6dgpraVYCITvUWy1z\nFerGWoBZAgMBAAECggEAGloGqD6AZDKT5d6/KToSto0p3wIrKcnRabWY7V3xYmjV\nqOK292wxH981+uJ2rujERuqF8o6gBTlqiE3diaxFACHgBazu8lQg9TMIMRUE7iWm\n84ctNCsceUwLCik319sjlOT+wxBHQMbU8cv2UkmCeg3qPVAujm6Rg1gMROaE2d4V\nZXeKXf39cj3E7pw1qH4kKoeowrEeh3UxQyDQM98szBSuYMf+R75Nxlm/yyYA9nnf\nEGo0tWIjD/lRPhebZSMsTmeM+6EhMbV+uy7P6dDFiaBSryNIFEhxTkhwXF5kT/Zl\n/qqPyTuibAxzUgdSnns+6Db2AmEoprb5UMnwxLsnWQKBgQDljjFDYsUaW6CNcSR4\n/sWfvHbtDZoE5VvmSyjkk6sQuFIT9eAiDCSLk9wGIsQ0AF2s+INebRCudVVzd4jQ\nwc9f1pEQ+jRUg6ExPVogOB+gvYmA45Yg8T+2gRhi0P41s1dsIZNaHkcXVDTXsPSM\n1jjdW33bKQELbPsg3aGo0cZaTQKBgQDQieVKzhX1ADZBnHlyDcEhNhVB0OO2AhPa\nu/z3Y+pB0YXBCKDAGK28UAPA5VNeP97/n/69MgZu5WWVD96fKw1raKFe1FyLgnh1\n3y4IUW+2E+AkRGlBeAQ/B70FgvNB3Dukwp9LTzeVZybGpANKAHe8W3jTzaGqDX4R\ncPRt5jjsPQKBgQCXQorTjFG0fIvep58Q20/9YYI70aqbb0aPCRd5BpTB/7KV1H5L\n8RRjpJpmsKH4YgVX5Kkrn1JOoqIb47gTVqH+1LPiK/wvdEzS1Up90H2GvV3NwCk8\nq7r/1zDqbCwV1obUiYs+5pSRmrr3JXL/Gml98ruLnglCLh2MGn5bb170QQKBgQDM\nsQ3nxzG2MmcPL8/lK6sONk/XMnrRBGkIos1C50fhIw/u0dE3vQGLfd6xUGfsczUo\nJJueiaPW5kQ3dERIZ7HcY+9BbaEJLx+eU1qTv5uvVQMFlkDaijtgwu++oTK0yr+g\nkYhaG3+rnnxpLkQsNxlQQVjwTT8J9ARyijTiSsBE4QKBgFoTD8g8eo1j1Rk9GCNN\nC15LXjh05QMo1BHvtD5VKRs9XwOstSBTUOOGAbs5AuMdzfAp2Fo+STptCZFlONpy\nNfm5PcnIYvMsXyug0nMwFywOwpRQ1vgMWAJ2AGoRbEpHbb5LHfIHQFBCw/dQ+7Zj\nN+6wWJomU9YBHd9EUrz7EKLh\n-----END PRIVATE KEY-----\n",
  "client_email": "crondbmservice20200418@cron20200418.iam.gserviceaccount.com",
  "client_id": "107409083509665881687",
  "auth_uri": "https://accounts.google.com/o/oauth2/auth",
  "token_uri": "https://oauth2.googleapis.com/token",
  "auth_provider_x509_cert_url": "https://www.googleapis.com/oauth2/v1/certs",
  "client_x509_cert_url": "https://www.googleapis.com/robot/v1/metadata/x509/crondbmservice20200418%40cron20200418.iam.gserviceaccount.com"
}
