{
  "type": "service_account",
  "project_id": "robust-channel-227810",
  "private_key_id": "5187c1f8312a934d17e27bec103ab57dccdda993",
  "private_key": "-----BEGIN PRIVATE KEY-----\nMIIEvAIBADANBgkqhkiG9w0BAQEFAASCBKYwggSiAgEAAoIBAQCialI612Ixwffu\nQD2VtJyv68QrY9AwgyIlzxgb9PIidFC5nPS1fCj9M1pdp8cIW0R6psMMwX9YyImP\nbCfMJbzxh2SD5ZAhK611NzWFzhsUMt0u5uJIBfHd22m0YwowV8e5VNgkLar2Xdei\n1Uq4tOfi4OJWf8hpe/Pz7JNhs2ARbDNNI8WHzLKqUs8UqMibLvwaookbRswWEnxJ\nki00WlFrKbJpRrYXPr9EWKtDcuglLqYPVUO0462Fhu0HWU7Zxa7K1ZzWOZvr53BK\nBuqIPiSCJJlp0lr5lTQBz8KAvnahxwHZ+fKVITnB8qAjSb1Kv2zgK96yfUwx/o3p\nvDNN8ynZAgMBAAECggEADpeZ3WfbjoKRuX9eaR8UktO5HiLgzMhYtD1Cj8R2pXTT\niecEWh1BJi/2dwKrews5gFbk9bZEMEsNh5bH4+t3ads9wyydbKAwJ0oMuNcMj3Mw\ndIB8T8yaRKdsJwUHoHyf2P1lUVQkZO/dKhKax4ntaZtwinqpnByYYvqG6q4YkV1a\n1hJaDY3bHAnkiy8oF9ctwPKxlrKnNklvEcT9w9PwbDv4s9ArWejK1RfONUOKJ0EM\nbhif0kd0MNy/TibuS8/pvP9ffPa/9bX6LVds1JwYp2gZ8I0HssWyMvf+08r+6jtl\nHXsCSXgd5b+VnMIAwl6FW25Ide9sMKptNkljmBkcRwKBgQDPLaflpARIxjNsxHP3\ntRamKp9kRuQXsTAHY88ep0/a36p9bb/0pa06Mqgk1TtkOUpB2TPdppZsZtIPnYLH\nbensE2cpz2hvliKgZtTM64P/tX1/E5EGUC1hwwg2zhupniXRty1So07dRvhJbIjI\n6pESM6fsO7QUH3jOgkrrBGS8qwKBgQDIsETKfvTTV4v4udqh8ZjvyGKgBO6AcQ8e\n/DynQeOiabZs8IhDUDce3A381lOKNKKLc066H3aWfOM/YtPznE/OTL+baM3QdI2j\nKFHeQAtl6dRIPfekC36L6B8NVXGA2rCV5jr8oaASRV0/bnmzxj7m3/qX6eHMwoxy\nzYH33rAriwKBgC/CkqX5vZMZPdmhICrGcEY2JTB0tzhO/Id3ltO2Nk56qU7o8gtv\n9hMogmKbVWmxW1D6xV4ffSXYPiyjXvaie/6UKoAU9DplHe5kRkJHONLF//w/gns2\nGIAk+cvIj8/2STmjRKt8Qj34klw6zP2kNXVAu0FWMhlBeBQDLUooZSCpAoGAcMmf\n3646Kgypvb+2AA2nxhr4UrZy0/y2YtOfwuBk7oI65D7KVgpe8Bj8Q3ywtpuePoEv\nXasRGsJVdOo19FOFBoxboxvjj6PxdiDS4fVccopXo8IvyyIqnLZ3vSaoA6LkW1pp\nDFJJg/s3zM5p138zGs4GKBpprIoqJNsakBO3LsECgYAnntiomFZTV/6OoWLpFaky\nH4bk2yQiWiGUbVIIyyfVdMJr3HX89KRMY+LOpctzKpq0Zr9oikawsC9AHmzErTw4\nKxlhWKnUHaEOKls7G2Glt3p3ISd8yN2gAcFezCPQ/MR8ek9/XXjkJCCvhGzf3W1Z\nnAf5QFvWNUVWtfqiy4wupg==\n-----END PRIVATE KEY-----\n",
  "client_email": "ga-metrics@robust-channel-227810.iam.gserviceaccount.com",
  "client_id": "117993520048385149246",
  "auth_uri": "https://accounts.google.com/o/oauth2/auth",
  "token_uri": "https://oauth2.googleapis.com/token",
  "auth_provider_x509_cert_url": "https://www.googleapis.com/oauth2/v1/certs",
  "client_x509_cert_url": "https://www.googleapis.com/robot/v1/metadata/x509/ga-metrics%40robust-channel-227810.iam.gserviceaccount.com"
}
